{
"type": "FeatureCollection",
"name": "ohr_data",
"crs": { "type": "name", "properties": { "name": "urn:ogc:def:crs:OGC:1.3:CRS84" } },
"features": [
{ "type": "Feature", "properties": { "SlNo": 3, "Location": "ZONE - IA (SURJAPUR)", "Lat": 22.756614022000001, "Lon": 88.418840751000005, "code": "Z IA", "CAPACITY": "565m3" }, "geometry": { "type": "Point", "coordinates": [ 88.418840751000175, 22.756614022000122 ] } },
{ "type": "Feature", "properties": { "SlNo": 14, "Location": "ZONE - XII (ALIPUR)", "Lat": 22.727823232, "Lon": 88.6838595, "code": "XII", "CAPACITY": "1250m3" }, "geometry": { "type": "Point", "coordinates": [ 88.683859500000111, 22.727823232000063 ] } },
{ "type": "Feature", "properties": { "SlNo": 13, "Location": "ZONE - XI (AZIZNAGAR)", "Lat": 22.652995604000001, "Lon": 88.697476096000003, "code": "XI", "CAPACITY": "900m3" }, "geometry": { "type": "Point", "coordinates": [ 88.697476096000059, 22.652995604000072 ] } },
{ "type": "Feature", "properties": { "SlNo": 12, "Location": "ZONE - X (KEYADANGA)", "Lat": 22.658479425, "Lon": 88.65481762, "code": "X", "CAPACITY": "1250m3" }, "geometry": { "type": "Point", "coordinates": [ 88.654817620000117, 22.65847942500017 ] } },
{ "type": "Feature", "properties": { "SlNo": 18, "Location": "ZONE - IX (KHEJURDANGA)", "Lat": 22.707968423000001, "Lon": 88.642114769000003, "code": "Z IX", "CAPACITY": "1000m3" }, "geometry": { "type": "Point", "coordinates": [ 88.642114769000102, 22.707968423 ] } },
{ "type": "Feature", "properties": { "SlNo": 11, "Location": "ZONE - VIII (KANCHIYARA)", "Lat": 22.884818389, "Lon": 88.528352143999996, "code": "Z VIII", "CAPACITY": "1360m3" }, "geometry": { "type": "Point", "coordinates": [ 88.528352144000166, 22.884818389000088 ] } },
{ "type": "Feature", "properties": { "SlNo": 10, "Location": "ZONE - VII (KHARU)", "Lat": 22.843966769000001, "Lon": 88.50155807, "code": "Z VII", "CAPACITY": "960m3" }, "geometry": { "type": "Point", "coordinates": [ 88.501558070000158, 22.843966769000133 ] } },
{ "type": "Feature", "properties": { "SlNo": 9, "Location": "ZONE - VI (BERABERIA)", "Lat": 22.776484971, "Lon": 88.446500723, "code": "Z VI", "CAPACITY": "910m3" }, "geometry": { "type": "Point", "coordinates": [ 88.446500723000099, 22.776484971000112 ] } },
{ "type": "Feature", "properties": { "SlNo": 8, "Location": "ZONE - V (KHARKI)", "Lat": 22.739681661, "Lon": 88.566437324000006, "code": "Z V", "CAPACITY": "1200m3" }, "geometry": { "type": "Point", "coordinates": [ 88.566437324000162, 22.739681661000251 ] } },
{ "type": "Feature", "properties": { "SlNo": 7, "Location": "ZONE - IV (TENTULIA)", "Lat": 22.727870403000001, "Lon": 88.536452784000005, "code": "Z IV", "CAPACITY": "1360m3" }, "geometry": { "type": "Point", "coordinates": [ 88.536452784000119, 22.727870403000111 ] } },
{ "type": "Feature", "properties": { "SlNo": 5, "Location": "ZONE - II (BERUNANPUKURIA)", "Lat": 22.737777005000002, "Lon": 88.443882275999997, "code": "Z II", "CAPACITY": "615m3" }, "geometry": { "type": "Point", "coordinates": [ 88.443882276000068, 22.73777700499999 ] } },
{ "type": "Feature", "properties": { "SlNo": 4, "Location": "ZONE - IB (TELINIPARA)", "Lat": 22.77048984, "Lon": 88.40064533, "code": "Z IB", "CAPACITY": "1000m3" }, "geometry": { "type": "Point", "coordinates": [ 88.400645330000032, 22.770489840000153 ] } },
{ "type": "Feature", "properties": { "SlNo": 0, "Location": "ZONE - III (ALGORIA)", "Lat": 22.749151917, "Lon": 88.486157, "code": "Z III", "CAPACITY": "600m3" }, "geometry": { "type": "Point", "coordinates": [ 88.486156661000109, 22.749151917000052 ] } },
{ "type": "Feature", "properties": { "SlNo": 0, "Location": "ZONE - XIII (UTTOR KOLSUR)", "Lat": 22.777369, "Lon": 88.719479, "code": "Z XIII", "CAPACITY": "1000m3" }, "geometry": { "type": "Point", "coordinates": [ 88.719215759551957, 22.777371866341753 ] } }
]
}
